…
Summers and Pandemic

Just imagine - Hot Indian summers was about to start and due to Pandemic there was lockdown in the city- no free movement and mostly all retail business were closed and your wife broke this news that your 10 year old Refrigerator had stopped working - very gripping situation which one would not like to be in.

Now the tough decision is to get it repair or buy a new Refrigerator - why tough because due to slowdown & pandemic there was salary cut;now anyone can imagine my tough situation. But finally tough decision was taken jointly (By WIFE ONLY) that we have to buy a new Refrigerator..

By now, it was clear to me that I have to really make very smart & informed decision- so decided to test my newly learned skill - WEB SCRAPING using python.

So I scraped price of all Refrigerators listed on Amazon

So here is the glimpse of the data which was scraped from Amazon

## # A tibble: 536 x 14
##       sn   MRP discription    offer_price Rating1     Brand Type  litres Capcity
##    <int> <int> <chr>                <int> <chr>       <chr> <chr>  <dbl> <chr>  
##  1     1 69999 AmazonBasics ~       38999 "4.1 out o~ Amaz~ Fros~    468 More t~
##  2     2 18400 Haier 195 L 4~       13440 "\n\n\n\n\~ Haier Dire~    195 121L t~
##  3     3 14990 Samsung 192 L~       12290 "\n\n\n\n\~ Sams~ Dire~    192 121L t~
##  4     4    NA Whirlpool 190~          NA "\n\n\n\n\~ Whir~ Dire~    190 121L t~
##  5     5 11500 Haier 53 L 2 ~        8900 "\n\n\n\n\~ Haier Dire~     53 Less t~
##  6     6 28250 Whirlpool 265~       24990 "\n\n\n\n\~ Whir~ Fros~    265 231L t~
##  7     7 28990 Samsung 253 L~       23090 "\n\n\n\n\~ Sams~ Fros~    253 231L t~
##  8     8 18990 Samsung 230 L~       15890 "\n\n\n\n\~ Sams~ Dire~    230 201L t~
##  9     9 30690 LG 260 L 3 St~       25290 "\n\n\n\n\~ LG    Fros~    260 231L t~
## 10    10 20990 Samsung 198 L~       17790 "\n\n\n\n\~ Sams~ Dire~    198 121L t~
## # ... with 526 more rows, and 5 more variables: Star_Rating <chr>,
## #   Technology <chr>, Doors <chr>, final_rating <dbl>, views <int>
…
